{
    "adult": false,
    "backdrop_path": "/2Y7nbXrDtHwAfcTX7KBN0z40OAy.jpg",
    "belongs_to_collection": {
        "id": 84,
        "name": "Indiana Jones - Collezione",
        "poster_path": "/oAFWkKPieGy5tip7qo6lzGLlVLD.jpg",
        "backdrop_path": "/6kh59mZizZsttZPR0HAdXk6Ve2n.jpg"
    },
    "budget": 48000000,
    "genres": [
        {
            "id": 12,
            "name": "Avventura"
        },
        {
            "id": 28,
            "name": "Azione"
        }
    ],
    "homepage": "http://www.indianajones.com/",
    "id": 89,
    "imdb_id": "tt0097576",
    "origin_country": [
        "US"
    ],
    "original_language": "en",
    "original_title": "Indiana Jones and the Last Crusade",
    "overview": "Nel 1938, Indiana Jones, celebre archeologo, apprende che suo padre, Henry, anch'egli archeologo, è stato rapito perchè prossimo, con i suoi studi, ad individuare il luogo dove è custodito il Santo Graal, il calice in cui, secondo la leggenda, Gesù Cristo bevve nell'Ultima Cena.",
    "popularity": 71.392,
    "poster_path": "/9Vt9LdR1T9iRfaeUmUmgJjHkO7X.jpg",
    "production_companies": [
        {
            "id": 4,
            "logo_path": "/gz66EfNoYPqHTYI4q9UEN4CbHRc.png",
            "name": "Paramount Pictures",
            "origin_country": "US"
        },
        {
            "id": 1,
            "logo_path": "/tlVSws0RvvtPBwViUyOFAO0vcQS.png",
            "name": "Lucasfilm Ltd.",
            "origin_country": "US"
        }
    ],
    "production_countries": [
        {
            "iso_3166_1": "US",
            "name": "United States of America"
        }
    ],
    "release_date": "1989-05-24",
    "revenue": 474171806,
    "runtime": 127,
    "spoken_languages": [
        {
            "english_name": "Arabic",
            "iso_639_1": "ar",
            "name": "العربية"
        },
        {
            "english_name": "English",
            "iso_639_1": "en",
            "name": "English"
        },
        {
            "english_name": "German",
            "iso_639_1": "de",
            "name": "Deutsch"
        },
        {
            "english_name": "Greek",
            "iso_639_1": "el",
            "name": "ελληνικά"
        }
    ],
    "status": "Released",
    "tagline": "Questa volta si porta papà.",
    "title": "Indiana Jones e l'ultima crociata",
    "video": false,
    "vote_average": 7.8,
    "vote_count": 10214
}